^C:\USERS\MED\DESKTOP\SCRABBLEPROJECT\SCRABBLEPROJECT\DEBUG\MAIN.OBJ
C:\USERS\MED\DESKTOP\SCRABBLEPROJECT\DEBUG\SCRABBLEPROJECT.EXE
C:\USERS\MED\DESKTOP\SCRABBLEPROJECT\DEBUG\SCRABBLEPROJECT.ILK
C:\USERS\MED\DESKTOP\SCRABBLEPROJECT\DEBUG\SCRABBLEPROJECT.PDB
